{
    "webroot": "wwwroot",
    "version": "1.0.0-*",

    "dependencies": {
        "MediatR": "2.0.2",
        "Microsoft.AspNet.IISPlatformHandler": "1.0.0-beta8",
        "Microsoft.AspNet.Mvc": "6.0.0-beta8",
        "Microsoft.AspNet.Server.Kestrel": "1.0.0-beta8",
        "Microsoft.AspNet.StaticFiles": "1.0.0-beta8",
        "Microsoft.Azure.DocumentDB": "1.5.0",
        "Microsoft.Framework.Logging": "1.0.0-beta8",
        "Microsoft.Framework.Logging.Console": "1.0.0-beta8",
        "Microsoft.Framework.Logging.Debug": "1.0.0-beta8",
        "SimpleInjector": "3.1.0",
        "SimpleInjector.Extensions.ExecutionContextScoping": "3.1.0",
        "Microsoft.Framework.Configuration": "1.0.0-beta8",
        "Microsoft.Framework.Configuration.Json": "1.0.0-beta8",
        "Microsoft.AspNet.WebApi.Client": "5.2.3",
        "Microsoft.AspNet.Authentication.JwtBearer": "1.0.0-beta8",
        "System.IdentityModel.Tokens": "5.0.0-beta8-210131116",
        "Microsoft.AspNet.Cors": "6.0.0-beta8",
        "Microsoft.AspNet.Diagnostics": "1.0.0-beta8",
        "WindowsAzure.Storage": "6.1.0"
    },

    "commands": {
        "web": "Microsoft.AspNet.Server.Kestrel"
    },

    "frameworks": {
        "dnx451": { }
    },

    "exclude": [
        "wwwroot",
        "node_modules"
    ],
    "publishExclude": [
        "**.user",
        "**.vspscc"
    ]
}
